%!PS-Adobe-3.0 EPSF-3.0
%%CreationDate: Tue May 29 10:57:05 2012
%%LanguageLevel: 3
%%BoundingBox: 0 0 450 142
%%EndComments
newpath
20.41 96.84 moveto
18.35 114.38 33.38 131.50 50.97 132.00 curveto
159.96 132.00 268.95 132.00 377.94 132.00 curveto
386.24 131.89 395.04 130.97 402.13 126.24 curveto
410.43 120.39 415.53 110.13 415.04 99.97 curveto
415.05 94.09 413.20 88.40 411.24 82.91 curveto
406.42 70.46 399.40 59.02 392.21 47.81 curveto
384.46 35.25 374.01 24.71 364.66 13.37 curveto
362.91 11.52 361.15 8.48 358.13 9.36 curveto
350.31 13.93 343.80 20.43 336.00 25.03 curveto
333.54 26.86 331.38 29.11 328.61 30.49 curveto
316.57 36.91 303.36 40.74 290.10 43.66 curveto
235.42 55.04 179.58 58.90 123.96 62.53 curveto
102.57 64.02 81.16 65.36 59.82 67.45 curveto
65.80 68.56 71.94 67.94 77.99 67.99 curveto
99.66 68.12 121.33 67.74 142.99 68.26 curveto
172.01 68.25 201.02 68.24 230.03 68.27 curveto
245.70 67.73 261.39 68.11 277.07 68.00 curveto
312.03 67.84 346.98 68.47 381.95 68.23 curveto
390.25 67.90 398.75 71.46 404.00 77.98 curveto
409.96 85.13 411.38 95.08 410.02 104.06 curveto
407.94 116.86 395.99 127.22 382.96 127.17 curveto
272.98 127.21 163.00 127.16 53.02 127.19 curveto
44.87 127.21 36.59 124.07 31.09 117.95 curveto
24.43 111.62 22.26 101.82 23.58 92.95 curveto
24.61 84.35 29.89 76.65 37.08 71.97 curveto
35.39 72.37 33.84 73.24 32.56 74.42 curveto
26.38 80.41 21.21 88.05 20.41 96.84 curveto
closepath
0.047 0.455 0.243 setrgbcolor
fill
%%EOF
